{
  "project_info": {
    "project_number": "836357066521",
    "project_id": "depotrequest"
  },
  "client": [
    {
      "client_info": {
        "mobilesdk_app_id": "1:836357066521:android:30838518b908bd40",
        "android_client_info": {
          "package_name": "com.ergerodr.android.depotrequest"
        }
      },
      "oauth_client": [
        {
          "client_id": "836357066521-kqhjbg4kqq0dku8e7ta4g4epploijmpq.apps.googleusercontent.com",
          "client_type": 1,
          "android_info": {
            "package_name": "com.ergerodr.android.depotrequest",
            "certificate_hash": "D8DD9AD585F05EF81459F3FD726613146F393852"
          }
        },
        {
          "client_id": "836357066521-mc01ga4fuhrav1k9gsjvuc154139sdv1.apps.googleusercontent.com",
          "client_type": 3
        }
      ],
      "api_key": [
        {
          "current_key": "AIzaSyCgcpP0sAEYtkOH8tcMiVOrHlPLMlXRCg0"
        }
      ],
      "services": {
        "analytics_service": {
          "status": 2,
          "analytics_property": {
            "tracking_id": "UA-82900774-1"
          }
        },
        "appinvite_service": {
          "status": 1,
          "other_platform_oauth_client": []
        },
        "ads_service": {
          "status": 1
        }
      }
    }
  ],
  "configuration_version": "1"
}